{
  "en": "Graduated in the French engineering school ESEO, I am fond of project management and team management. Programming is a second nature for me since I made my first steps in the IT world at age 13 helping my parents at the book store by computerizing inventory management. Since then I have been working on more than 20 B2B projects.",
  "fr": "Actuellement ingénieur diplômé de l'ESEO (majeure Systèmes Embarqués, infrastructure Linux, développement web et Android), je suis passionné par les nouvelles technologies et le suivi de projet informatique. Mon objectif : me lancer dans la gestion de projet pour me professionnaliser vers le management d'équipe."
}
